[gd_scene load_steps=5 format=2]

[ext_resource path="res://scripts/unit.gd" type="Script" id=1]
[ext_resource path="res://assets/models/unit/Material.material" type="Material" id=2]

[sub_resource type="BoxShape" id=2]

[sub_resource type="ArrayMesh" id=1]
blend_shape_mode = 0
surfaces/0 = {
"aabb": AABB( -0.01, -0.01, -0.01, 0.02001, 0.02001, 0.02001 ),
"array_data": PoolByteArray( 10, 215, 35, 60, 10, 215, 35, 60, 10, 215, 35, 60, 0, 0, 129, 63, 0, 57, 0, 56, 10, 215, 35, 188, 10, 215, 35, 188, 10, 215, 35, 60, 0, 0, 129, 63, 0, 59, 0, 52, 10, 215, 35, 188, 10, 215, 35, 60, 10, 215, 35, 60, 0, 0, 129, 63, 0, 59, 0, 56, 10, 215, 35, 60, 10, 215, 35, 188, 10, 215, 35, 60, 0, 0, 129, 63, 0, 57, 0, 52, 10, 215, 35, 60, 10, 215, 35, 188, 10, 215, 35, 188, 0, 129, 0, 63, 0, 54, 0, 52, 10, 215, 35, 188, 10, 215, 35, 188, 10, 215, 35, 60, 0, 129, 0, 63, 0, 57, 0, 0, 10, 215, 35, 60, 10, 215, 35, 188, 10, 215, 35, 60, 0, 129, 0, 63, 0, 57, 0, 52, 10, 215, 35, 188, 10, 215, 35, 188, 10, 215, 35, 188, 0, 129, 0, 63, 0, 54, 0, 0, 10, 215, 35, 188, 10, 215, 35, 188, 10, 215, 35, 188, 129, 0, 0, 63, 0, 54, 0, 60, 10, 215, 35, 188, 10, 215, 35, 60, 10, 215, 35, 60, 129, 0, 0, 63, 0, 57, 0, 58, 10, 215, 35, 188, 10, 215, 35, 188, 10, 215, 35, 60, 129, 0, 0, 63, 0, 57, 0, 60, 10, 215, 35, 188, 10, 215, 35, 60, 10, 215, 35, 60, 129, 0, 0, 63, 0, 57, 0, 58, 10, 215, 35, 188, 10, 215, 35, 188, 10, 215, 35, 188, 129, 0, 0, 63, 0, 54, 0, 60, 10, 215, 35, 188, 10, 215, 35, 60, 10, 215, 35, 188, 129, 0, 0, 63, 0, 54, 0, 58, 10, 215, 35, 188, 10, 215, 35, 60, 10, 215, 35, 188, 127, 127, 127, 63, 0, 48, 0, 56, 10, 215, 35, 60, 10, 215, 35, 188, 10, 215, 35, 188, 127, 127, 127, 63, 0, 54, 0, 52, 10, 215, 35, 60, 10, 215, 35, 60, 10, 215, 35, 188, 127, 127, 127, 63, 0, 54, 0, 56, 10, 215, 35, 188, 10, 215, 35, 188, 10, 215, 35, 188, 127, 127, 127, 63, 0, 48, 0, 52, 10, 215, 35, 60, 10, 215, 35, 60, 10, 215, 35, 188, 127, 0, 0, 63, 0, 54, 0, 56, 10, 215, 35, 60, 10, 215, 35, 188, 10, 215, 35, 60, 127, 0, 0, 63, 0, 57, 0, 52, 10, 215, 35, 60, 10, 215, 35, 60, 10, 215, 35, 60, 127, 0, 0, 63, 0, 57, 0, 56, 10, 215, 35, 60, 10, 215, 35, 188, 10, 215, 35, 60, 127, 0, 0, 63, 0, 57, 0, 52, 10, 215, 35, 60, 10, 215, 35, 60, 10, 215, 35, 188, 127, 0, 0, 63, 0, 54, 0, 56, 10, 215, 35, 60, 10, 215, 35, 188, 10, 215, 35, 188, 127, 0, 0, 63, 0, 54, 0, 52, 10, 215, 35, 188, 10, 215, 35, 60, 10, 215, 35, 188, 0, 127, 0, 63, 0, 54, 0, 58, 10, 215, 35, 60, 10, 215, 35, 60, 10, 215, 35, 60, 0, 127, 0, 63, 0, 57, 0, 56, 10, 215, 35, 188, 10, 215, 35, 60, 10, 215, 35, 60, 0, 127, 0, 63, 0, 57, 0, 58, 10, 215, 35, 60, 10, 215, 35, 60, 10, 215, 35, 188, 0, 127, 0, 63, 0, 54, 0, 56 ),
"array_index_data": PoolByteArray( 0, 0, 1, 0, 2, 0, 1, 0, 0, 0, 3, 0, 4, 0, 5, 0, 6, 0, 5, 0, 4, 0, 7, 0, 8, 0, 9, 0, 10, 0, 11, 0, 12, 0, 13, 0, 14, 0, 15, 0, 16, 0, 15, 0, 14, 0, 17, 0, 18, 0, 19, 0, 20, 0, 21, 0, 22, 0, 23, 0, 24, 0, 25, 0, 26, 0, 25, 0, 24, 0, 27, 0 ),
"blend_shape_data": [  ],
"format": 2194711,
"index_count": 36,
"material": ExtResource( 2 ),
"name": "Material",
"primitive": 4,
"skeleton_aabb": [  ],
"vertex_count": 28
}

[node name="unit" type="KinematicBody"]
script = ExtResource( 1 )

[node name="collider" type="CollisionShape" parent="."]
shape = SubResource( 2 )

[node name="model" type="MeshInstance" parent="."]
transform = Transform( 100, 0, 0, 0, 0, 100, 0, -100, 0, 0, 0, 0 )
mesh = SubResource( 1 )
skeleton = NodePath("")
material/0 = null
